{
    "dev": {
        "app_function": "app.app",
        "aws_region": "us-east-1",
        "profile_name": "lambda_user",
        "project_name": "zappa-robot-app",
        "runtime": "python3.10",
        "s3_bucket": "zappa-1lq5aopcg"
    }
    
}